{
  "files": {
    "main.css": "/static/css/main.28d782b3.css",
    "main.js": "/static/js/main.e387b9fe.js",
    "static/js/787.95ee206e.chunk.js": "/static/js/787.95ee206e.chunk.js",
    "index.html": "/index.html",
    "main.28d782b3.css.map": "/static/css/main.28d782b3.css.map",
    "main.e387b9fe.js.map": "/static/js/main.e387b9fe.js.map",
    "787.95ee206e.chunk.js.map": "/static/js/787.95ee206e.chunk.js.map"
  },
  "entrypoints": [
    "static/css/main.28d782b3.css",
    "static/js/main.e387b9fe.js"
  ]
}